{
	"Gin": {
		"name": "Pump 1",
		"pin": 17 
	},
	"Sweet Vermouth": {
		"name": "Pump 2",
		"pin": 27 
	},
	"Campari": {
		"name": "Pump 3",
		"pin": 22 
	},
	"Tonic Water": {
		"name": "Pump 4",
		"pin": 23 
	},
	"Dry Vermouth": {
		"name": "Pump 5",
		"pin": 24 
	},
	"Rye Whiskey": {
		"name": "Pump 6",
		"pin": 25 
	}
}
